<svg width="12" height="10" viewBox="0 0 12 10" fill="none" xmlns="http://www.w3.org/2000/svg">
<path d="M6.625 1L11 5L6.625 9M1 5L11 5L1 5Z" stroke="#FFB503" stroke-linecap="round" stroke-linejoin="round"/>
</svg>
