<svg width="339" height="260" viewBox="0 0 339 260" fill="none" xmlns="http://www.w3.org/2000/svg">
<g filter="url(#filter0_d_98_47)">
<path d="M283.877 20.9041C262.44 11.066 239.819 4.04444 216.579 0.0143525C216.369 -0.0211072 216.152 0.00951815 215.96 0.102019C215.767 0.19452 215.608 0.344352 215.505 0.530914C212.591 5.69654 209.368 12.4532 207.116 17.7428C182.065 13.941 156.583 13.941 131.532 17.7428C129.02 11.8502 126.178 6.10386 123.019 0.530914C122.913 0.346396 122.754 0.198289 122.562 0.106086C122.37 0.0138821 122.155 -0.0180975 121.945 0.0143525C98.6997 4.02288 76.0742 11.0481 54.6472 20.9041C54.4639 20.9741 54.3105 21.1056 54.2133 21.2761C11.3593 85.3091 -0.39762 147.772 5.36721 209.449C5.38788 209.739 5.57384 210.028 5.80113 210.214C30.7557 228.699 58.668 242.812 88.3478 251.952C88.5573 252.018 88.7825 252.016 88.9906 251.945C89.1987 251.875 89.3788 251.74 89.5049 251.56C95.8689 242.881 101.53 233.728 106.407 224.099C106.508 223.901 106.543 223.675 106.506 223.455C106.469 223.236 106.361 223.034 106.2 222.88C106.093 222.779 105.967 222.702 105.828 222.653C96.926 219.231 88.3043 215.121 80.0414 210.359C79.8107 210.228 79.639 210.013 79.5621 209.759C79.4851 209.505 79.5088 209.232 79.6282 208.995C79.6985 208.841 79.8048 208.706 79.9381 208.602C81.6738 207.3 83.4094 205.937 85.0624 204.573C85.2085 204.456 85.3837 204.38 85.5693 204.355C85.7549 204.329 85.944 204.355 86.1162 204.428C140.231 229.141 198.809 229.141 252.263 204.428C252.442 204.351 252.638 204.324 252.831 204.349C253.024 204.375 253.206 204.452 253.358 204.573C255.011 205.937 256.747 207.3 258.483 208.602C258.623 208.705 258.736 208.841 258.811 208.998C258.887 209.155 258.922 209.329 258.914 209.503C258.905 209.677 258.854 209.846 258.765 209.995C258.675 210.145 258.55 210.269 258.4 210.359C250.156 215.164 241.523 219.27 232.593 222.632C232.45 222.684 232.321 222.766 232.214 222.873C232.107 222.98 232.024 223.109 231.973 223.252C231.925 223.39 231.906 223.536 231.916 223.682C231.927 223.828 231.967 223.97 232.035 224.099C236.994 233.707 242.676 242.881 248.916 251.56C249.042 251.74 249.222 251.875 249.43 251.945C249.638 252.016 249.864 252.018 250.073 251.952C279.802 242.841 307.76 228.725 332.744 210.214C332.869 210.127 332.973 210.014 333.048 209.881C333.123 209.749 333.167 209.601 333.178 209.449C340.079 138.143 321.627 76.197 284.29 21.2967C284.252 21.206 284.196 21.1243 284.125 21.0566C284.054 20.989 283.969 20.9371 283.877 20.9041V20.9041ZM114.486 171.885C98.1831 171.885 84.7731 156.925 84.7731 138.577C84.7731 120.208 97.9352 105.248 114.486 105.248C131.16 105.248 144.446 120.332 144.198 138.577C144.198 156.925 131.036 171.885 114.486 171.885ZM224.328 171.885C208.046 171.885 194.615 156.925 194.615 138.577C194.615 120.208 207.777 105.248 224.328 105.248C241.002 105.248 254.309 120.332 254.04 138.577C254.04 156.925 241.002 171.885 224.328 171.885Z" fill="#FFB503"/>
</g>
<defs>
<filter id="filter0_d_98_47" x="0" y="0" width="338.604" height="260" filterUnits="userSpaceOnUse" color-interpolation-filters="sRGB">
<feFlood flood-opacity="0" result="BackgroundImageFix"/>
<feColorMatrix in="SourceAlpha" type="matrix" values="0 0 0 0 0 0 0 0 0 0 0 0 0 0 0 0 0 0 127 0" result="hardAlpha"/>
<feOffset dy="4"/>
<feGaussianBlur stdDeviation="2"/>
<feComposite in2="hardAlpha" operator="out"/>
<feColorMatrix type="matrix" values="0 0 0 0 0 0 0 0 0 0 0 0 0 0 0 0 0 0 0.25 0"/>
<feBlend mode="normal" in2="BackgroundImageFix" result="effect1_dropShadow_98_47"/>
<feBlend mode="normal" in="SourceGraphic" in2="effect1_dropShadow_98_47" result="shape"/>
</filter>
</defs>
</svg>
